{
    "Nnorm": {
        "0": {
            "364128": {
                "18": 8933659.34816267, 
                "17": 6726218.077864401, 
                "16": 5376400.516368365
            }, 
            "364129": {
                "18": 4770706.272553146, 
                "17": 3521733.009528864, 
                "16": 2869561.7533620894
            }, 
            "364203": {
                "18": 410956.8663687706, 
                "17": 300008.0717076063, 
                "16": 246687.90270602703
            }, 
            "364202": {
                "18": 957837.385357976, 
                "17": 1283516.732527852, 
                "16": 575003.1574845314
            }, 
            "410659": {
                "18": 913190267.6558287, 
                "17": 686025497.7628446, 
                "16": 548747574.0492325
            }, 
            "345718": {
                "18": 827653.4203315973, 
                "17": 630515.977244854, 
                "16": 500409.64762222767
            }, 
            "700337": {
                "18": 277332073255151.8, 
                "17": 246280914847252.84, 
                "16": 189505741418919.72
            }, 
            "364131": {
                "18": 3659863.0333864684, 
                "17": 2756430.0435886546, 
                "16": 2197872.0580745935
            }, 
            "364130": {
                "18": 6840714.950188339, 
                "17": 5139096.833921947, 
                "16": 4113202.669943255
            }, 
            "364133": {
                "18": 3494191.181779377, 
                "17": 2593361.696172881, 
                "16": 2091196.602239482
            }, 
            "700336": {
                "18": 202575081943841.16, 
                "17": 154852823384506.38, 
                "16": 120682528284585.62
            }, 
            "364135": {
                "18": 3330631.457425489, 
                "17": 2501431.6081469804, 
                "16": 2003115.0031818985
            }, 
            "364134": {
                "18": 4971988.860777982, 
                "17": 3736560.370813339, 
                "16": 2961137.3953287946
            }, 
            "364137": {
                "18": 11391073.608164063, 
                "17": 8621185.341270877, 
                "16": 6894884.571464726
            }, 
            "364136": {
                "18": 5756855.577799028, 
                "17": 4324569.813422268, 
                "16": 3474732.262132364
            }, 
            "364139": {
                "18": 3119091.8343725484, 
                "17": 2343822.058156969, 
                "16": 1860614.675960146
            }, 
            "364360": {
                "18": 1248138.574294448, 
                "17": 938092.8950491548, 
                "16": 750866.8138321042
            }, 
            "364361": {
                "18": 25345692.465811253, 
                "17": 18923333.855679393, 
                "16": 12060076.800358653
            }, 
            "364362": {
                "18": 22589447.835782647, 
                "17": 17005227.069550037, 
                "16": 11011263.100885987
            }, 
            "410658": {
                "18": 1541363079.0878057, 
                "17": 1154034678.026248, 
                "16": 916561398.9353477
            }, 
            "364208": {
                "18": 956408.6658139229, 
                "17": 1151921.8608795404, 
                "16": 575348.5504747629
            }, 
            "410155": {
                "18": 6601725.5496377945, 
                "17": 4111925.0083904862, 
                "16": 4110680.752181828
            }, 
            "410157": {
                "18": 1895730.984977007, 
                "17": 1585437.047315836, 
                "16": 1583158.6200356483
            }, 
            "410156": {
                "18": 310260.3004670441, 
                "17": 232220.94164696336, 
                "16": 185808.90324950218
            }, 
            "363358": {
                "18": 421986.4222877941, 
                "17": 1267157.1838620342, 
                "16": 254404.24982877888
            }, 
            "363359": {
                "18": 1785302.8612444974, 
                "17": 5368427.07686818, 
                "16": 1076338.1368878877
            }, 
            "363355": {
                "18": 5795084.355500013, 
                "17": 3490355.3816497903, 
                "16": 3496611.893687886
            }, 
            "363356": {
                "18": 5801154.544173779, 
                "17": 3493533.4273156147, 
                "16": 6986120.763220448
            }, 
            "363357": {
                "18": 928257.3438840841, 
                "17": 555940.2063387908, 
                "16": 559370.3905766859
            }, 
            "363360": {
                "18": 1787130.816855038, 
                "17": 2149924.584562771, 
                "16": 1080428.4093693169
            }, 
            "363489": {
                "18": 1873760.2045233655, 
                "17": 5628759.453970802, 
                "16": 1124506.2071727505
            }, 
            "346344": {
                "18": 4288533.092157841, 
                "17": 3411838.4249281883, 
                "16": 2620873.087012768
            }, 
            "346345": {
                "18": 452972.22428928316, 
                "17": 355020.01412670314, 
                "16": 273018.9591578543
            }, 
            "407321": {
                "18": 30000.0, 
                "17": 30000.0, 
                "16": 30000.0
            }, 
            "410645": {
                "18": 4207585.823101759, 
                "17": 3171824.083278179, 
                "16": 2537965.303387642
            }, 
            "410644": {
                "18": 6699455.012125969, 
                "17": 5065597.106669903, 
                "16": 4056368.955808401
            }, 
            "410647": {
                "18": 627923457.9749184, 
                "17": 472449817.9592819, 
                "16": 379068450.2138939
            }, 
            "410646": {
                "18": 629079337.5018501, 
                "17": 469749758.5137291, 
                "16": 379094181.70738983
            }, 
            "410218": {
                "18": 79922.39313930273, 
                "17": 48893.6310615167, 
                "16": 52012.904244579375
            }, 
            "410219": {
                "18": 80098.10679871589, 
                "17": 49331.13402491063, 
                "16": 52021.83777882159
            }, 
            "345715": {
                "18": 500394.96820271015, 
                "17": 375332.0796742439, 
                "16": 300292.08586633205
            }, 
            "345723": {
                "18": 170173.82785391808, 
                "17": 115178.82399439812, 
                "16": 100099.69094538689
            }, 
            "364359": {
                "18": 1286460.1584812999, 
                "17": 967103.7827276587, 
                "16": 772878.3012515903
            }, 
            "700348": {
                "18": 817822915034814.5, 
                "17": 629086313061959.0, 
                "16": 484020432299616.06
            }, 
            "700349": {
                "18": 8537443441122626.0, 
                "17": 6593617795804479.0, 
                "16": 5145426272179523.0
            }, 
            "410408": {
                "18": 2546.1095115616918, 
                "17": 1918.382265932858, 
                "16": 1611.9032054953277
            }, 
            "700344": {
                "18": 323355180847655.4, 
                "17": 283263310682541.8, 
                "16": 216047775130950.06
            }, 
            "700345": {
                "18": 2182885661512077.2, 
                "17": 1666365262738436.0, 
                "16": 1282112541733018.0
            }, 
            "700346": {
                "18": 8956868080689987.0, 
                "17": 6843129431704173.0, 
                "16": 5352010219981618.0
            }, 
            "700347": {
                "18": 147101611094692.94, 
                "17": 133293795668701.16, 
                "16": 101516017858759.22
            }, 
            "700340": {
                "18": 2.2421217501160852e+16, 
                "17": 1.7540048244880236e+16, 
                "16": 1.387294653158131e+16
            }, 
            "700341": {
                "18": 1544375967848262.5, 
                "17": 1060591289634400.2, 
                "16": 923082171687562.4
            }, 
            "700342": {
                "18": 1.814487818466087e+16, 
                "17": 1.3453998650885892e+16, 
                "16": 1.0839371043477492e+16
            }, 
            "700343": {
                "18": 3.963951725865526e+16, 
                "17": 3.0142212111758572e+16, 
                "16": 2.42388739639828e+16
            }, 
            "364363": {
                "18": 5295116.525287032, 
                "17": 3982353.7583658695, 
                "16": 1990680.5021437407
            }, 
            "363494": {
                "18": 1761446.1659236513, 
                "17": 1070941.7333544653, 
                "16": 1061536.7650401318
            }, 
            "700328": {
                "18": 244089586852192.56, 
                "17": 187145856694947.56, 
                "16": 147163813661775.0
            }, 
            "700329": {
                "18": 59550289315786.984, 
                "17": 48471985283538.84, 
                "16": 36848445942304.79
            }, 
            "700326": {
                "18": 72292420876552.72, 
                "17": 57028913317771.35, 
                "16": 43613197741949.11
            }, 
            "364358": {
                "18": 1289019.5527813435, 
                "17": 966820.478753686, 
                "16": 775913.6345018148
            }, 
            "700324": {
                "18": 851275843866292.5, 
                "17": 473453521558210.6, 
                "16": 369464211151280.8
            }, 
            "700325": {
                "18": 1703333230702372.5, 
                "17": 1309460937505841.0, 
                "16": 1044561516150456.0
            }, 
            "700322": {
                "18": 711946915693262.5, 
                "17": 591626398867917.5, 
                "16": 464925554212603.0
            }, 
            "700323": {
                "18": 304875287377808.6, 
                "17": 116681354429878.61, 
                "16": 182626357523163.25
            }, 
            "700320": {
                "18": 63024353473411.23, 
                "17": 64059293755502.19, 
                "16": 31307335092510.68
            }, 
            "700321": {
                "18": 420029813716854.25, 
                "17": 298501203826277.5, 
                "16": 164261016396052.8
            }, 
            "364210": {
                "18": 5111239.826318514, 
                "17": 6674734.3598365225, 
                "16": 3350829.7934992807
            }, 
            "364211": {
                "18": 1051083.6608129293, 
                "17": 1261319.6258422546, 
                "16": 629985.8015463166
            }, 
            "364199": {
                "18": 1052101.5669952948, 
                "17": 1426724.4282982778, 
                "16": 633229.5214529652
            }, 
            "364198": {
                "18": 5353169.301741479, 
                "17": 7539762.059365309, 
                "16": 3346738.5154271275
            }, 
            "364214": {
                "18": 959934.5447695255, 
                "17": 720358.1547564268, 
                "16": 577537.0114842653
            }, 
            "364215": {
                "18": 411443.3161172867, 
                "17": 308227.3845384121, 
                "16": 246056.02946472168
            }, 
            "345123": {
                "18": 35384006.68846512, 
                "17": 35357116.15828323, 
                "16": 125659504.51140976
            }, 
            "345122": {
                "18": 14173303.407032013, 
                "17": 14164871.63061905, 
                "16": 59532215.534957886
            }, 
            "345121": {
                "18": 14173417.349956512, 
                "17": 14166125.002788544, 
                "16": 59197622.13716507
            }, 
            "345120": {
                "18": 58588141.43401718, 
                "17": 35420183.56699371, 
                "16": 126106160.77544785
            }, 
            "346193": {
                "18": 5236437.690150738, 
                "17": 3740866.734210491, 
                "16": 2991682.653829813
            }, 
            "346192": {
                "18": 2546377.100717306, 
                "17": 1853319.5717988014, 
                "16": 1483023.8363058567
            }, 
            "410470": {
                "18": 145339943591.9115, 
                "17": 109034065946.99658, 
                "16": 87205814506.85889
            }, 
            "410471": {
                "18": 62888811224.053955, 
                "17": 36401261966.79114, 
                "16": 29124112160.552002
            }, 
            "364207": {
                "18": 1066623.514770098, 
                "17": 1281934.393959375, 
                "16": 641173.943863973
            }, 
            "364206": {
                "18": 2252756.8589501604, 
                "17": 3045430.3201342244, 
                "16": 1355988.648283502
            }, 
            "364205": {
                "18": 1049289.970536733, 
                "17": 1339353.4677397367, 
                "16": 634977.0002092286
            }, 
            "364204": {
                "18": 5557138.076512438, 
                "17": 7530848.916494516, 
                "16": 3350216.474510545
            }, 
            "700339": {
                "18": 9357612836810042.0, 
                "17": 7166791371404230.0, 
                "16": 5673122439185550.0
            }, 
            "700338": {
                "18": 848237848907779.9, 
                "17": 673636948178775.9, 
                "16": 515251859365380.4
            }, 
            "364201": {
                "18": 1074632.9758373573, 
                "17": 1440850.7979290634, 
                "16": 640180.0921142846
            }, 
            "364200": {
                "18": 2242879.142321147, 
                "17": 3044329.976331886, 
                "16": 1338520.4266057033
            }, 
            "700335": {
                "18": 164690188051864.44, 
                "17": 111290589285247.53, 
                "16": 98484535945318.75
            }, 
            "700334": {
                "18": 124451709965328.44, 
                "17": 99433229366491.89, 
                "16": 77844786189895.23
            }, 
            "700441": {
                "18": 46794101869140.71, 
                "17": 34081725153671.645, 
                "16": 26271087753732.83
            }, 
            "700440": {
                "18": 20137380331228.254, 
                "17": 15235547321052.844, 
                "16": 12790269942899.508
            }, 
            "700331": {
                "18": 215648423378280.34, 
                "17": 168354028755222.56, 
                "16": 132234464792657.7
            }, 
            "700330": {
                "18": 202716485450488.7, 
                "17": 162536743785686.2, 
                "16": 123694825710862.78
            }, 
            "700333": {
                "18": 136785248079974.47, 
                "17": 111567192318699.83, 
                "16": 85450553590875.11
            }, 
            "700332": {
                "18": 41321159992142.164, 
                "17": 34805220570091.777, 
                "16": 26321667122925.387
            }, 
            "346190": {
                "18": 5205694.8745987415, 
                "17": 3744689.721229315, 
                "16": 2995649.683831215
            }, 
            "700327": {
                "18": 235657603465454.25, 
                "17": 183938141083086.75, 
                "16": 140806839211277.88
            }, 
            "364212": {
                "18": 2244771.2394161634, 
                "17": 2708278.862685282, 
                "16": 1352443.6711884253
            }, 
            "364209": {
                "18": 413826.72326660156, 
                "17": 492300.7906675339, 
                "16": 246286.4134197235
            }, 
            "364213": {
                "18": 1068484.0669243187, 
                "17": 1283180.6496652812, 
                "16": 642791.9585025609
            }, 
            "364254": {
                "18": 8486152.834101373, 
                "17": 10169005.44145776, 
                "16": 5115404.241318415
            }, 
            "364289": {
                "18": 4133378.819599986, 
                "17": 2742909.0877889395, 
                "16": 2226378.547246456
            }, 
            "364288": {
                "18": 329596.57260131836, 
                "17": 247421.8006104231, 
                "16": 199668.4345268011
            }, 
            "364287": {
                "18": 1008492.4623917341, 
                "17": 126495.1251449585, 
                "16": 100710.99061357975
            }, 
            "364286": {
                "18": 498590.6208848953, 
                "17": 1246704.2833693027, 
                "16": 967388.2880985737
            }, 
            "346191": {
                "18": 2591944.6276471615, 
                "17": 1336474.2581396103, 
                "16": 1486581.9885296822
            }, 
            "364284": {
                "18": 2830976.959338546, 
                "17": 2178126.0673257113, 
                "16": 1711086.59649992
            }, 
            "364283": {
                "18": 60636875.495097876, 
                "17": 441065.2297388315, 
                "16": 342607.8711707592
            }, 
            "364282": {
                "18": 1324249.2835885286, 
                "17": 997934.8591587543, 
                "16": 807469.5966355801
            }, 
            "364281": {
                "18": 6141220.327858686, 
                "17": 4567034.991472483, 
                "16": 3733150.5507457256
            }, 
            "364280": {
                "18": 6064689.729497671, 
                "17": 4362709.508333325, 
                "16": 3645738.5549486876
            }, 
            "346343": {
                "18": 1969241.4972782135, 
                "17": 1549074.7723579407, 
                "16": 1188825.7710456848
            }, 
            "364290": {
                "18": 48496.06748878956, 
                "17": 40270.6168974638, 
                "16": 29840.345098257065
            }, 
            "345706": {
                "18": 993365.5451016426, 
                "17": 980878.3647150993, 
                "16": 989750.8683941364
            }, 
            "345705": {
                "18": 500338.10642409325, 
                "17": 125056.89135038853, 
                "16": 100064.61282527447
            }, 
            "342285": {
                "18": 100000.0, 
                "17": 100000.0, 
                "16": 100000.0
            }, 
            "342284": {
                "18": 100000.0, 
                "17": 100000.0, 
                "16": 100000.0
            }, 
            "410220": {
                "18": 35092.02892035991, 
                "17": 32785.08994945139, 
                "16": 34220.875033184886
            }, 
            "700439": {
                "18": 17683306786104.246, 
                "17": 13358609685711.148, 
                "16": 11241876278677.01
            }, 
            "407313": {
                "18": 50068.7694401741, 
                "17": 50049.272108078, 
                "16": 50080.04868555069
            }, 
            "407312": {
                "18": 50126.526701927185, 
                "17": 50188.96915793419, 
                "16": 50194.86173629761
            }, 
            "407311": {
                "18": 50040.128276228905, 
                "17": 49995.045885801315, 
                "16": 49993.213176488876
            }, 
            "407315": {
                "18": 58088.91110277176, 
                "17": 60021.73080384731, 
                "16": 60053.42516374588
            }, 
            "407314": {
                "18": 49856.336027145386, 
                "17": 50259.29389691353, 
                "16": 50290.863520264626
            }, 
            "304014": {
                "18": 200000.0, 
                "17": 200000.0, 
                "16": 200000.0
            }, 
            "364132": {
                "18": 1210611.923509667, 
                "17": 867693.836967104, 
                "16": 731820.0971565561
            }, 
            "364140": {
                "18": 4924814.365906587, 
                "17": 3723437.2357986085, 
                "16": 2978246.0811943
            }, 
            "364141": {
                "18": 1697836.3845854998, 
                "17": 1272790.3731224537, 
                "16": 1018499.869475007
            }, 
            "364304": {
                "18": 118624.20146661997, 
                "17": 96645.75129145384, 
                "16": 72043.11453925073
            }, 
            "364305": {
                "18": 127426.66525815427, 
                "17": 96643.76950544119, 
                "16": 76879.55476722121
            }, 
            "364302": {
                "18": 417884.862519145, 
                "17": 319070.95156538486, 
                "16": 249522.96225559711
            }, 
            "364303": {
                "18": 415894.8200303316, 
                "17": 320029.0848301649, 
                "16": 249084.15590035915
            }, 
            "364138": {
                "18": 1533292.9253381998, 
                "17": 1134138.3970906995, 
                "16": 918441.5953951804
            }, 
            "308092": {
                "18": 838458.8959590197, 
                "17": 630389.0237036943, 
                "16": 500423.9295511246
            }, 
            "308093": {
                "18": 839218.6207970381, 
                "17": 630868.2068861723, 
                "16": 500655.7231632471
            }, 
            "308094": {
                "18": 832585.9199738503, 
                "17": 630369.2812553644, 
                "16": 500312.36827397346
            }, 
            "308095": {
                "18": 1668056.0146597624, 
                "17": 1249872.2205278873, 
                "16": 999933.6436164379
            }, 
            "308096": {
                "18": 1653295.824378252, 
                "17": 1248469.2044585943, 
                "16": 998934.5874867439
            }, 
            "308097": {
                "18": 1658057.4263932705, 
                "17": 1247558.9945950508, 
                "16": 998920.5831524134
            }, 
            "308098": {
                "18": 1656625.346910596, 
                "17": 1247820.230126977, 
                "16": 998973.2444810867
            }, 
            "364255": {
                "18": 2909969.956448513, 
                "17": 3502901.918750112, 
                "16": 1623894.1270567363
            }, 
            "364250": {
                "18": 10807980.257004578, 
                "17": 15187889.05480874, 
                "16": 7521151.755855529
            }, 
            "410081": {
                "18": 50000.0, 
                "17": 50000.0, 
                "16": 50000.0
            }, 
            "364253": {
                "18": 9244667.942705572, 
                "17": 10893652.534424596, 
                "16": 5362658.6039415635
            }, 
            "410080": {
                "18": 200000.0, 
                "17": 200000.0, 
                "16": 200000.0
            }, 
            "410560": {
                "18": 57.83406007321901, 
                "17": 43.73435394882108, 
                "16": 43.74373485916294
            }
        }, 
        "207": {
            "516008": {
                "18": 73.7036386616528, 
                "17": 75.40449335519224, 
                "16": 74.63086676970124
            }, 
            "516009": {
                "18": 713.1071928627789, 
                "17": 691.5723558170721, 
                "16": 705.3806409230456
            }, 
            "516006": {
                "18": 1100.2295503988862, 
                "17": 1075.6644748784602, 
                "16": 1109.8909802399576
            }, 
            "516007": {
                "18": 1068.8464624583721, 
                "17": 1027.6651329398155, 
                "16": 1070.6382788941264
            }
        }, 
        "206": {
            "516008": {
                "18": 177.4770763888955, 
                "17": 173.67886715568602, 
                "16": 173.2278125397861
            }, 
            "516009": {
                "18": 1613.5705296406522, 
                "17": 1578.4027699874714, 
                "16": 1606.6435858756304
            }, 
            "516006": {
                "18": 2734.984464123845, 
                "17": 2648.0545541383326, 
                "16": 2699.7337475270033
            }, 
            "516007": {
                "18": 2539.0145837143064, 
                "17": 2472.5221876204014, 
                "16": 2497.7171801552176
            }
        }
    }, 
    "lumi": {
        "18": 58450.120704, 
        "17": 44307.39456, 
        "16": 36207.680256
    }, 
    "xSection": {
        "0": {
            "364128": 1981.699951171875, 
            "364129": 1981.699951171875, 
            "364203": 3.2818000316619873, 
            "364202": 3.2385001182556152, 
            "410659": 22.174999237060547, 
            "345718": 0.4823000133037567, 
            "700337": 447.13, 
            "364131": 110.61000061035156, 
            "364130": 1982.0999755859375, 
            "364133": 110.66000366210938, 
            "700336": 447.13, 
            "364135": 40.715999603271484, 
            "364134": 40.770999908447266, 
            "364137": 8.663900375366211, 
            "364136": 40.74100112915039, 
            "364139": 8.679400444030762, 
            "364360": 140.7100067138672, 
            "364361": 206.80999755859375, 
            "364362": 163.9600067138672, 
            "410658": 36.99599838256836, 
            "364208": 3.2544000148773193, 
            "410155": 0.54830002784729, 
            "410157": 0.5280900001525879, 
            "410156": 0.15499000251293182, 
            "363358": 3.432800054550171, 
            "363359": 24.707000732421875, 
            "363355": 15.5600004196167, 
            "363356": 15.562999725341797, 
            "363357": 6.795100212097168, 
            "363360": 24.72599983215332, 
            "363489": 11.418999671936035, 
            "346344": 0.52458, 
            "346345": 0.054667, 
            "407321": 0.00026641000295057893, 
            "410645": 1.2674000263214111, 
            "410644": 2.0269999504089355, 
            "410647": 37.904998779296875, 
            "410646": 37.93600082397461, 
            "410218": 0.0368649996817112, 
            "410219": 0.03686799854040146, 
            "345715": 0.2685000002384186, 
            "345723": 0.007105499971657991, 
            "364359": 458.510009765625, 
            "700348": 14126.0, 
            "700349": 14126.0, 
            "410408": 0.01604600064456463, 
            "700344": 7680.0, 
            "700345": 7680.0, 
            "700346": 7680.0, 
            "700347": 14126.0, 
            "700340": 21742.0, 
            "700341": 21806.0, 
            "700342": 21806.0, 
            "700343": 21806.0, 
            "364363": 43.26499938964844, 
            "363494": 0.6029300093650818, 
            "700328": 275.33, 
            "700329": 1013.2, 
            "700326": 275.33, 
            "364358": 568.5399780273438, 
            "700324": 2221.3, 
            "700325": 2221.3, 
            "700322": 2221.2, 
            "700323": 2221.3, 
            "700320": 2221.2, 
            "700321": 2221.2, 
            "364210": 2415.300048828125, 
            "364211": 2414.300048828125, 
            "364199": 2414.39990234375, 
            "364198": 2414.300048828125, 
            "364214": 3.2836999893188477, 
            "364215": 3.2802999019622803, 
            "345123": 3.0469, 
            "345122": 6.0938, 
            "345121": 6.0938, 
            "345120": 3.0469, 
            "346193": 3.7476, 
            "346192": 3.7473, 
            "410470": 729.77001953125, 
            "410471": 729.780029296875, 
            "364207": 50.483001708984375, 
            "364206": 50.33000183105469, 
            "364205": 2415.5, 
            "364204": 2415.300048828125, 
            "700339": 21742.0, 
            "700338": 21742.0, 
            "364201": 50.27399826049805, 
            "364200": 50.33000183105469, 
            "700335": 447.13, 
            "700334": 932.53, 
            "700441": 144.67, 
            "700440": 137.74, 
            "700331": 1013.2, 
            "700330": 1013.2, 
            "700333": 932.53, 
            "700332": 932.53, 
            "346190": 3.7476, 
            "700327": 275.33, 
            "364212": 50.40800094604492, 
            "364209": 3.251199960708618, 
            "364213": 50.470001220703125, 
            "364254": 12.50100040435791, 
            "364289": 2.9707999229431152, 
            "364288": 1.4484000205993652, 
            "364287": 0.04084699973464012, 
            "364286": 0.025210000574588776, 
            "346191": 3.7474, 
            "364284": 0.047168001532554626, 
            "364283": 0.010545000433921814, 
            "364282": 9.137800216674805, 
            "364281": 36.39099884033203, 
            "364280": 46.04100036621094, 
            "346343": 0.23844, 
            "364290": 0.1723800003528595, 
            "345706": 0.010162999853491783, 
            "345705": 0.009957700036466122, 
            "342285": 0.6007199883460999, 
            "342284": 1.1021000146865845, 
            "410220": 0.0365150012075901, 
            "700439": 490.18, 
            "407313": 0.004365100059658289, 
            "407312": 0.0005676299915648997, 
            "407311": 0.00010250000195810571, 
            "407315": 0.005808699876070023, 
            "407314": 0.015773000195622444, 
            "304014": 0.001639600028283894, 
            "364132": 110.55999755859375, 
            "364140": 1.8075000047683716, 
            "364141": 0.1482599973678589, 
            "364304": 0.6223999857902527, 
            "364305": 0.6225299835205078, 
            "364302": 0.9229999780654907, 
            "364303": 0.9246900081634521, 
            "364138": 8.675999641418457, 
            "308092": 0.6314799785614014, 
            "308093": 0.6352199912071228, 
            "308094": 0.632830023765564, 
            "308095": 2.9326999187469482, 
            "308096": 6.802999973297119, 
            "308097": 6.80079984664917, 
            "308098": 6.798299789428711, 
            "364255": 3.2344000339508057, 
            "364250": 1.2519999742507935, 
            "410081": 0.008095200173556805, 
            "364253": 4.576499938964844, 
            "410080": 0.0091626001521945, 
            "410560": 0.2404100000858307
        }, 
        "207": {
            "516008": 0.0044947, 
            "516009": 0.0044947, 
            "516006": 0.019924, 
            "516007": 0.019924
        }, 
        "206": {
            "516008": 0.011802, 
            "516009": 0.011802, 
            "516006": 0.054004, 
            "516007": 0.054004
        }
    }, 
    "filterEff": {
        "364128": 0.8344900012016296, 
        "364129": 0.10955999791622162, 
        "364203": 0.16029000282287598, 
        "364202": 0.8534799814224243, 
        "410659": 1.0, 
        "345718": 1.0, 
        "700337": 0.7127169966697693, 
        "364131": 0.6926599740982056, 
        "364130": 0.06575699895620346, 
        "364133": 0.11088600009679794, 
        "700336": 0.20238099992275238, 
        "364135": 0.2342900037765503, 
        "364134": 0.6180899739265442, 
        "364137": 0.5633999705314636, 
        "364136": 0.15589000284671783, 
        "364139": 0.176269993185997, 
        "364360": 1.0, 
        "516008": 0.5785320997238159, 
        "516009": 0.42942050099372864, 
        "364361": 1.0, 
        "364362": 1.0, 
        "410658": 1.0, 
        "364208": 0.8547300100326538, 
        "410155": 1.0, 
        "410157": 1.0, 
        "410156": 1.0, 
        "363358": 1.0, 
        "363359": 1.0, 
        "363355": 0.27685999870300293, 
        "363356": 0.14135000109672546, 
        "363357": 1.0, 
        "363360": 1.0, 
        "363489": 1.0, 
        "346344": 0.43841999769210815, 
        "346345": 1.0, 
        "407321": 1.0, 
        "410645": 1.0, 
        "410644": 1.0, 
        "410647": 1.0, 
        "410646": 1.0, 
        "410218": 1.0, 
        "410219": 1.0, 
        "345715": 1.0, 
        "345723": 1.0, 
        "364359": 1.0, 
        "700348": 0.14337000250816345, 
        "700349": 0.8474599719047546, 
        "410408": 1.0, 
        "700344": 0.009011306799948215, 
        "700345": 0.14603300392627716, 
        "700346": 0.8474699854850769, 
        "700347": 0.008677749894559383, 
        "700340": 0.8435999751091003, 
        "700341": 0.009796800091862679, 
        "700342": 0.14601120352745056, 
        "700343": 0.8435500264167786, 
        "364363": 1.0, 
        "363494": 1.0, 
        "700328": 0.8503599762916565, 
        "700329": 0.024431010708212852, 
        "700326": 0.02490679919719696, 
        "364358": 1.0, 
        "700324": 0.13003000617027283, 
        "700325": 0.8463900089263916, 
        "700322": 0.8460699915885925, 
        "700323": 0.024394389241933823, 
        "700320": 0.02493594028055668, 
        "700321": 0.1298145055770874, 
        "364210": 0.9653900265693665, 
        "364211": 0.03465300053358078, 
        "364199": 0.034425001591444016, 
        "364198": 0.9653599858283997, 
        "364214": 0.8549200296401978, 
        "364215": 0.15623000264167786, 
        "345123": 0.18889999389648438, 
        "345122": 0.03782600164413452, 
        "345121": 0.037748999893665314, 
        "345120": 0.053755998611450195, 
        "346193": 0.4728499948978424, 
        "346192": 0.1764799952507019, 
        "410470": 0.5438399910926819, 
        "410471": 0.4562700092792511, 
        "364207": 0.10869999974966049, 
        "364206": 0.8931400179862976, 
        "364205": 0.03469499945640564, 
        "364204": 0.9652000069618225, 
        "700339": 0.14897659420967102, 
        "700338": 0.009376371279358864, 
        "364201": 0.10898999869823456, 
        "364200": 0.8930799961090088, 
        "700335": 0.08426930755376816, 
        "700334": 0.8500400185585022, 
        "700441": 1.0, 
        "700440": 1.0, 
        "700331": 0.8502200245857239, 
        "700330": 0.12547430396080017, 
        "700333": 0.12475220113992691, 
        "700332": 0.024596869945526123, 
        "346190": 0.4656600058078766, 
        "700327": 0.12540000677108765, 
        "364212": 0.8931599855422974, 
        "364209": 0.15349000692367554, 
        "364213": 0.10984999686479568, 
        "364254": 1.0, 
        "364289": 1.0, 
        "364288": 1.0, 
        "364287": 1.0, 
        "364286": 1.0, 
        "346191": 0.17636999487876892, 
        "364284": 1.0, 
        "364283": 1.0, 
        "364282": 1.0, 
        "364281": 1.0, 
        "364280": 1.0, 
        "346343": 1.0, 
        "364290": 1.0, 
        "345706": 1.0, 
        "345705": 1.0, 
        "342285": 1.0, 
        "342284": 1.0, 
        "410220": 1.0, 
        "700439": 1.0, 
        "407313": 1.0, 
        "407312": 1.0, 
        "407311": 1.0, 
        "407315": 1.0, 
        "407314": 1.0, 
        "304014": 1.0, 
        "364132": 0.19022999703884125, 
        "364140": 1.0, 
        "364141": 1.0, 
        "364304": 1.0, 
        "364305": 1.0, 
        "364302": 0.14177000522613525, 
        "364303": 0.2799000144004822, 
        "516007": 0.399104505777359, 
        "364138": 0.2643299996852875, 
        "516006": 0.5232275724411011, 
        "308092": 1.0, 
        "308093": 1.0, 
        "308094": 1.0, 
        "308095": 1.0, 
        "308096": 1.0, 
        "308097": 1.0, 
        "308098": 1.0, 
        "364255": 1.0, 
        "364250": 1.0, 
        "410081": 1.0, 
        "364253": 1.0, 
        "410080": 1.0, 
        "410560": 1.0
    }, 
    "kFactor": {
        "364128": 0.9750999808311462, 
        "364129": 0.9750999808311462, 
        "364203": 0.9750999808311462, 
        "364202": 0.9750999808311462, 
        "410659": 1.1849000453948975, 
        "345718": 1.0, 
        "700337": 1.0, 
        "364131": 0.9750999808311462, 
        "364130": 0.9750999808311462, 
        "364133": 0.9750999808311462, 
        "700336": 1.0, 
        "364135": 0.9750999808311462, 
        "364134": 0.9750999808311462, 
        "364137": 0.9750999808311462, 
        "364136": 0.9750999808311462, 
        "364139": 0.9750999808311462, 
        "364360": 1.0, 
        "516008": 1.0, 
        "516009": 1.0, 
        "364361": 1.0, 
        "364362": 1.0, 
        "410658": 1.19350004196167, 
        "364208": 0.9750999808311462, 
        "410155": 1.0959999561309814, 
        "410157": 1.1100000143051147, 
        "410156": 1.1100000143051147, 
        "363358": 1.0, 
        "363359": 1.0, 
        "363355": 1.0, 
        "363356": 1.0, 
        "363357": 1.0, 
        "363360": 1.0, 
        "363489": 1.0, 
        "346344": 1.0, 
        "346345": 1.0, 
        "407321": 1.0, 
        "410645": 1.016700029373169, 
        "410644": 1.0169999599456787, 
        "410647": 0.9456999897956848, 
        "410646": 0.9449999928474426, 
        "410218": 1.1200000047683716, 
        "410219": 1.1200000047683716, 
        "345715": 1.0, 
        "345723": 1.0, 
        "364359": 1.0, 
        "700348": 1.0, 
        "700349": 1.0, 
        "410408": 1.0, 
        "700344": 1.0, 
        "700345": 1.0, 
        "700346": 1.0, 
        "700347": 1.0, 
        "700340": 1.0, 
        "700341": 1.0, 
        "700342": 1.0, 
        "700343": 1.0, 
        "364363": 1.0, 
        "363494": 1.0, 
        "700328": 1.0, 
        "700329": 1.0, 
        "700326": 1.0, 
        "364358": 1.0, 
        "700324": 1.0, 
        "700325": 1.0, 
        "700322": 1.0, 
        "700323": 1.0, 
        "700320": 1.0, 
        "700321": 1.0, 
        "364210": 0.9750999808311462, 
        "364211": 0.9750999808311462, 
        "364199": 0.9750999808311462, 
        "364198": 0.9750999808311462, 
        "364214": 0.9750999808311462, 
        "364215": 0.9750999808311462, 
        "345123": 1.0, 
        "345122": 1.0, 
        "345121": 1.0, 
        "345120": 1.0, 
        "346193": 1.0, 
        "346192": 1.0, 
        "410470": 1.1397563219070435, 
        "410471": 1.1397407054901123, 
        "364207": 0.9750999808311462, 
        "364206": 0.9750999808311462, 
        "364205": 0.9750999808311462, 
        "364204": 0.9750999808311462, 
        "700339": 1.0, 
        "700338": 1.0, 
        "364201": 0.9750999808311462, 
        "364200": 0.9750999808311462, 
        "700335": 1.0, 
        "700334": 1.0, 
        "700441": 1.0, 
        "700440": 1.0, 
        "700331": 1.0, 
        "700330": 1.0, 
        "700333": 1.0, 
        "700332": 1.0, 
        "346190": 1.0, 
        "700327": 1.0, 
        "364212": 0.9750999808311462, 
        "364209": 0.9750999808311462, 
        "364213": 0.9750999808311462, 
        "364254": 1.0, 
        "364289": 1.0, 
        "364288": 1.0, 
        "364287": 1.0, 
        "364286": 1.0, 
        "346191": 1.0, 
        "364284": 1.0, 
        "364283": 1.0, 
        "364282": 1.0, 
        "364281": 0.9750999808311462, 
        "364280": 0.9750999808311462, 
        "346343": 1.0, 
        "364290": 1.0, 
        "345706": 1.0, 
        "345705": 1.0, 
        "342285": 1.0, 
        "342284": 1.0, 
        "410220": 1.1200000047683716, 
        "700439": 1.0, 
        "407313": 1.0, 
        "407312": 1.0, 
        "407311": 1.0, 
        "407315": 1.0, 
        "407314": 1.0, 
        "304014": 1.0, 
        "364132": 0.9750999808311462, 
        "364140": 0.9750999808311462, 
        "364141": 0.9750999808311462, 
        "364304": 1.0, 
        "364305": 1.0, 
        "364302": 1.0, 
        "364303": 1.0, 
        "516007": 1.0, 
        "364138": 0.9750999808311462, 
        "516006": 1.0, 
        "308092": 1.0, 
        "308093": 1.0, 
        "308094": 1.0, 
        "308095": 1.0, 
        "308096": 1.0, 
        "308097": 1.0, 
        "308098": 1.0, 
        "364255": 1.0, 
        "364250": 1.0, 
        "410081": 1.2234259843826294, 
        "364253": 1.0, 
        "410080": 1.0041362047195435, 
        "410560": 1.0
    }
}