{
    "Nnorm": {
        "0": {
            "410645": {
                "16": 2537965.303387642,
                "17": 3171824.083278179,
                "18": 4207585.823101759
            },
            "410646": {
                "16": 189644620.31536865,
                "17": 236989730.11439133,
                "18": 315046579.55454636
            },
            "410647": {
                "16": 189607897.91196442,
                "17": 236691706.79514313,
                "18": 313730034.05451584
            },
            "410658": {
                "16": 177371127.73414177,
                "17": 230476260.4708776,
                "18": 306995965.17729956
            },
            "410659": {
                "16": 105687644.47309086,
                "17": 132472573.49418664,
                "18": 184202839.55086437
            },
            "425201": {
                "16": 5011692078.697266,
                "17": 6306089148.699707,
                "18": 15811295969.260498
            }
        }
    },
    "filterEff": {
        "410645": 1.0,
        "410646": 1.0,
        "410647": 1.0,
        "410658": 1.0,
        "410659": 1.0,
        "425201": 0.0434890016913414
    },
    "kFactor": {
        "410645": 1.016700029373169,
        "410646": 0.9449999928474426,
        "410647": 0.9456999897956848,
        "410658": 1.19350004196167,
        "410659": 1.1849000453948975,
        "425201": 1.0
    },
    "lumi": {
        "16": 36207.680256,
        "17": 44307.39456,
        "18": 58450.120704
    },
    "xSection": {
        "0": {
            "410645": 1.2674,
            "410646": 37.935,
            "410647": 37.905,
            "410658": 36.996,
            "410659": 22.175,
            "425201": 2049.1
        }
    }
}
